FIFO.log

Chronologic VCS simulator copyright 1991-2017
Contains Synopsys proprietary information.
Compiler version N-2017.12-SP2-2_Full64; Runtime version N-2017.12-SP2-2_Full64;  May 21 18:59 2022
VCD+ Writer N-2017.12-SP2-2_Full64 Copyright (c) 1991-2017 by Synopsys Inc.
Write to FIFO
                   0 DATA_OUT =   z, DATA_IN =   1, COUNT=           0, CLK= 1, WR_EN=0, RD_EN = 0 
                   5 DATA_OUT =   z, DATA_IN =   1, COUNT=           0, CLK= 0, WR_EN=0, RD_EN = 0 
                  10 DATA_OUT =   z, DATA_IN =   1, COUNT=           1, CLK= 1, WR_EN=1, RD_EN = 0 
                  15 DATA_OUT =   z, DATA_IN =   1, COUNT=           1, CLK= 0, WR_EN=1, RD_EN = 0 
                  20 DATA_OUT =   1, DATA_IN =   2, COUNT=           2, CLK= 1, WR_EN=1, RD_EN = 0 
                  25 DATA_OUT =   1, DATA_IN =   2, COUNT=           2, CLK= 0, WR_EN=1, RD_EN = 0 
                  30 DATA_OUT =   1, DATA_IN =   3, COUNT=           3, CLK= 1, WR_EN=1, RD_EN = 0 
                  35 DATA_OUT =   1, DATA_IN =   3, COUNT=           3, CLK= 0, WR_EN=1, RD_EN = 0 
                  40 DATA_OUT =   1, DATA_IN =   4, COUNT=           4, CLK= 1, WR_EN=1, RD_EN = 0 
                  45 DATA_OUT =   1, DATA_IN =   4, COUNT=           4, CLK= 0, WR_EN=1, RD_EN = 0 
                  50 DATA_OUT =   1, DATA_IN =   5, COUNT=           5, CLK= 1, WR_EN=1, RD_EN = 0 
                  55 DATA_OUT =   1, DATA_IN =   5, COUNT=           5, CLK= 0, WR_EN=1, RD_EN = 0 
                  60 DATA_OUT =   1, DATA_IN =   6, COUNT=           6, CLK= 1, WR_EN=1, RD_EN = 0 
                  65 DATA_OUT =   1, DATA_IN =   6, COUNT=           6, CLK= 0, WR_EN=1, RD_EN = 0 
                  70 DATA_OUT =   1, DATA_IN =   7, COUNT=           7, CLK= 1, WR_EN=1, RD_EN = 0 
                  75 DATA_OUT =   1, DATA_IN =   7, COUNT=           7, CLK= 0, WR_EN=1, RD_EN = 0 
                  80 DATA_OUT =   1, DATA_IN =   8, COUNT=           8, CLK= 1, WR_EN=1, RD_EN = 0 
                  85 DATA_OUT =   1, DATA_IN =   8, COUNT=           8, CLK= 0, WR_EN=1, RD_EN = 0 
                  90 DATA_OUT =   1, DATA_IN =   9, COUNT=           9, CLK= 1, WR_EN=1, RD_EN = 0 
                  95 DATA_OUT =   1, DATA_IN =   9, COUNT=           9, CLK= 0, WR_EN=1, RD_EN = 0 
                 100 DATA_OUT =   1, DATA_IN =  10, COUNT=          10, CLK= 1, WR_EN=1, RD_EN = 0 
                 105 DATA_OUT =   1, DATA_IN =  10, COUNT=          10, CLK= 0, WR_EN=1, RD_EN = 0 
                 110 DATA_OUT =   1, DATA_IN =  11, COUNT=          11, CLK= 1, WR_EN=1, RD_EN = 0 
                 115 DATA_OUT =   1, DATA_IN =  11, COUNT=          11, CLK= 0, WR_EN=1, RD_EN = 0 
                 120 DATA_OUT =   1, DATA_IN =  12, COUNT=          12, CLK= 1, WR_EN=1, RD_EN = 0 
                 125 DATA_OUT =   1, DATA_IN =  12, COUNT=          12, CLK= 0, WR_EN=1, RD_EN = 0 
                 130 DATA_OUT =   1, DATA_IN =  13, COUNT=          13, CLK= 1, WR_EN=1, RD_EN = 0 
                 135 DATA_OUT =   1, DATA_IN =  13, COUNT=          13, CLK= 0, WR_EN=1, RD_EN = 0 
                 140 DATA_OUT =   1, DATA_IN =  14, COUNT=          14, CLK= 1, WR_EN=1, RD_EN = 0 
                 145 DATA_OUT =   1, DATA_IN =  14, COUNT=          14, CLK= 0, WR_EN=1, RD_EN = 0 
                 150 DATA_OUT =   1, DATA_IN =  15, COUNT=          15, CLK= 1, WR_EN=1, RD_EN = 0 
                 155 DATA_OUT =   1, DATA_IN =  15, COUNT=          15, CLK= 0, WR_EN=1, RD_EN = 0 
                 160 DATA_OUT =   1, DATA_IN =  16, COUNT=          16, CLK= 1, WR_EN=1, RD_EN = 0 
                 165 DATA_OUT =   1, DATA_IN =  16, COUNT=          16, CLK= 0, WR_EN=1, RD_EN = 0 
                 170 DATA_OUT =   1, DATA_IN =  17, COUNT=          17, CLK= 1, WR_EN=1, RD_EN = 0 
                 175 DATA_OUT =   1, DATA_IN =  17, COUNT=          17, CLK= 0, WR_EN=1, RD_EN = 0 
                 180 DATA_OUT =   1, DATA_IN =  18, COUNT=          18, CLK= 1, WR_EN=1, RD_EN = 0 
                 185 DATA_OUT =   1, DATA_IN =  18, COUNT=          18, CLK= 0, WR_EN=1, RD_EN = 0 
                 190 DATA_OUT =   1, DATA_IN =  19, COUNT=          19, CLK= 1, WR_EN=1, RD_EN = 0 
                 195 DATA_OUT =   1, DATA_IN =  19, COUNT=          19, CLK= 0, WR_EN=1, RD_EN = 0 
                 200 DATA_OUT =   1, DATA_IN =  20, COUNT=          20, CLK= 1, WR_EN=1, RD_EN = 0 
                 205 DATA_OUT =   1, DATA_IN =  20, COUNT=          20, CLK= 0, WR_EN=1, RD_EN = 0 
                 210 DATA_OUT =   1, DATA_IN =  21, COUNT=          21, CLK= 1, WR_EN=1, RD_EN = 0 
                 215 DATA_OUT =   1, DATA_IN =  21, COUNT=          21, CLK= 0, WR_EN=1, RD_EN = 0 
                 220 DATA_OUT =   1, DATA_IN =  22, COUNT=          22, CLK= 1, WR_EN=1, RD_EN = 0 
                 225 DATA_OUT =   1, DATA_IN =  22, COUNT=          22, CLK= 0, WR_EN=1, RD_EN = 0 
                 230 DATA_OUT =   1, DATA_IN =  23, COUNT=          23, CLK= 1, WR_EN=1, RD_EN = 0 
                 235 DATA_OUT =   1, DATA_IN =  23, COUNT=          23, CLK= 0, WR_EN=1, RD_EN = 0 
                 240 DATA_OUT =   1, DATA_IN =  24, COUNT=          24, CLK= 1, WR_EN=1, RD_EN = 0 
                 245 DATA_OUT =   1, DATA_IN =  24, COUNT=          24, CLK= 0, WR_EN=1, RD_EN = 0 
                 250 DATA_OUT =   1, DATA_IN =  25, COUNT=          25, CLK= 1, WR_EN=1, RD_EN = 0 
                 255 DATA_OUT =   1, DATA_IN =  25, COUNT=          25, CLK= 0, WR_EN=1, RD_EN = 0 
                 260 DATA_OUT =   1, DATA_IN =  26, COUNT=          26, CLK= 1, WR_EN=1, RD_EN = 0 
                 265 DATA_OUT =   1, DATA_IN =  26, COUNT=          26, CLK= 0, WR_EN=1, RD_EN = 0 
                 270 DATA_OUT =   1, DATA_IN =  27, COUNT=          27, CLK= 1, WR_EN=1, RD_EN = 0 
                 275 DATA_OUT =   1, DATA_IN =  27, COUNT=          27, CLK= 0, WR_EN=1, RD_EN = 0 
                 280 DATA_OUT =   1, DATA_IN =  28, COUNT=          28, CLK= 1, WR_EN=1, RD_EN = 0 
                 285 DATA_OUT =   1, DATA_IN =  28, COUNT=          28, CLK= 0, WR_EN=1, RD_EN = 0 
                 290 DATA_OUT =   1, DATA_IN =  29, COUNT=          29, CLK= 1, WR_EN=1, RD_EN = 0 
                 295 DATA_OUT =   1, DATA_IN =  29, COUNT=          29, CLK= 0, WR_EN=1, RD_EN = 0 
                 300 DATA_OUT =   1, DATA_IN =  30, COUNT=          30, CLK= 1, WR_EN=1, RD_EN = 0 
                 305 DATA_OUT =   1, DATA_IN =  30, COUNT=          30, CLK= 0, WR_EN=1, RD_EN = 0 
                 310 DATA_OUT =   1, DATA_IN =  31, COUNT=          31, CLK= 1, WR_EN=1, RD_EN = 0 
                 315 DATA_OUT =   1, DATA_IN =  31, COUNT=          31, CLK= 0, WR_EN=1, RD_EN = 0 
                 320 DATA_OUT =   1, DATA_IN =  32, COUNT=          32, CLK= 1, WR_EN=1, RD_EN = 0 
                 325 DATA_OUT =   1, DATA_IN =  32, COUNT=          32, CLK= 0, WR_EN=1, RD_EN = 0 
                 330 DATA_OUT =   1, DATA_IN =  33, COUNT=          33, CLK= 1, WR_EN=1, RD_EN = 0 
Start to read from FIFO
                 335 DATA_OUT =   1, DATA_IN =  33, COUNT=          33, CLK= 0, WR_EN=0, RD_EN = 1 
                 340 DATA_OUT =   1, DATA_IN =  33, COUNT=          32, CLK= 1, WR_EN=0, RD_EN = 1 
                 345 DATA_OUT =   1, DATA_IN =  33, COUNT=          32, CLK= 0, WR_EN=0, RD_EN = 1 
                 350 DATA_OUT =   2, DATA_IN =  33, COUNT=          31, CLK= 1, WR_EN=0, RD_EN = 1 
                 355 DATA_OUT =   2, DATA_IN =  33, COUNT=          31, CLK= 0, WR_EN=0, RD_EN = 1 
                 360 DATA_OUT =   3, DATA_IN =  33, COUNT=          30, CLK= 1, WR_EN=0, RD_EN = 1 
                 365 DATA_OUT =   3, DATA_IN =  33, COUNT=          30, CLK= 0, WR_EN=0, RD_EN = 1 
                 370 DATA_OUT =   4, DATA_IN =  33, COUNT=          29, CLK= 1, WR_EN=0, RD_EN = 1 
                 375 DATA_OUT =   4, DATA_IN =  33, COUNT=          29, CLK= 0, WR_EN=0, RD_EN = 1 
                 380 DATA_OUT =   5, DATA_IN =  33, COUNT=          28, CLK= 1, WR_EN=0, RD_EN = 1 
                 385 DATA_OUT =   5, DATA_IN =  33, COUNT=          28, CLK= 0, WR_EN=0, RD_EN = 1 
                 390 DATA_OUT =   6, DATA_IN =  33, COUNT=          27, CLK= 1, WR_EN=0, RD_EN = 1 
                 395 DATA_OUT =   6, DATA_IN =  33, COUNT=          27, CLK= 0, WR_EN=0, RD_EN = 1 
                 400 DATA_OUT =   7, DATA_IN =  33, COUNT=          26, CLK= 1, WR_EN=0, RD_EN = 1 
                 405 DATA_OUT =   7, DATA_IN =  33, COUNT=          26, CLK= 0, WR_EN=0, RD_EN = 1 
                 410 DATA_OUT =   8, DATA_IN =  33, COUNT=          25, CLK= 1, WR_EN=0, RD_EN = 1 
                 415 DATA_OUT =   8, DATA_IN =  33, COUNT=          25, CLK= 0, WR_EN=0, RD_EN = 1 
                 420 DATA_OUT =   9, DATA_IN =  33, COUNT=          24, CLK= 1, WR_EN=0, RD_EN = 1 
                 425 DATA_OUT =   9, DATA_IN =  33, COUNT=          24, CLK= 0, WR_EN=0, RD_EN = 1 
                 430 DATA_OUT =  10, DATA_IN =  33, COUNT=          23, CLK= 1, WR_EN=0, RD_EN = 1 
                 435 DATA_OUT =  10, DATA_IN =  33, COUNT=          23, CLK= 0, WR_EN=0, RD_EN = 1 
                 440 DATA_OUT =  11, DATA_IN =  33, COUNT=          22, CLK= 1, WR_EN=0, RD_EN = 1 
                 445 DATA_OUT =  11, DATA_IN =  33, COUNT=          22, CLK= 0, WR_EN=0, RD_EN = 1 
                 450 DATA_OUT =  12, DATA_IN =  33, COUNT=          21, CLK= 1, WR_EN=0, RD_EN = 1 
                 455 DATA_OUT =  12, DATA_IN =  33, COUNT=          21, CLK= 0, WR_EN=0, RD_EN = 1 
                 460 DATA_OUT =  13, DATA_IN =  33, COUNT=          20, CLK= 1, WR_EN=0, RD_EN = 1 
                 465 DATA_OUT =  13, DATA_IN =  33, COUNT=          20, CLK= 0, WR_EN=0, RD_EN = 1 
                 470 DATA_OUT =  14, DATA_IN =  33, COUNT=          19, CLK= 1, WR_EN=0, RD_EN = 1 
                 475 DATA_OUT =  14, DATA_IN =  33, COUNT=          19, CLK= 0, WR_EN=0, RD_EN = 1 
                 480 DATA_OUT =  15, DATA_IN =  33, COUNT=          18, CLK= 1, WR_EN=0, RD_EN = 1 
                 485 DATA_OUT =  15, DATA_IN =  33, COUNT=          18, CLK= 0, WR_EN=0, RD_EN = 1 
                 490 DATA_OUT =  16, DATA_IN =  33, COUNT=          17, CLK= 1, WR_EN=0, RD_EN = 1 
                 495 DATA_OUT =  16, DATA_IN =  33, COUNT=          17, CLK= 0, WR_EN=0, RD_EN = 1 
                 500 DATA_OUT =  17, DATA_IN =  33, COUNT=          16, CLK= 1, WR_EN=0, RD_EN = 1 
                 505 DATA_OUT =  17, DATA_IN =  33, COUNT=          16, CLK= 0, WR_EN=0, RD_EN = 1 
                 510 DATA_OUT =  18, DATA_IN =  33, COUNT=          15, CLK= 1, WR_EN=0, RD_EN = 1 
                 515 DATA_OUT =  18, DATA_IN =  33, COUNT=          15, CLK= 0, WR_EN=0, RD_EN = 1 
                 520 DATA_OUT =  19, DATA_IN =  33, COUNT=          14, CLK= 1, WR_EN=0, RD_EN = 1 
                 525 DATA_OUT =  19, DATA_IN =  33, COUNT=          14, CLK= 0, WR_EN=0, RD_EN = 1 
                 530 DATA_OUT =  20, DATA_IN =  33, COUNT=          13, CLK= 1, WR_EN=0, RD_EN = 1 
                 535 DATA_OUT =  20, DATA_IN =  33, COUNT=          13, CLK= 0, WR_EN=0, RD_EN = 1 
                 540 DATA_OUT =  21, DATA_IN =  33, COUNT=          12, CLK= 1, WR_EN=0, RD_EN = 1 
                 545 DATA_OUT =  21, DATA_IN =  33, COUNT=          12, CLK= 0, WR_EN=0, RD_EN = 1 
                 550 DATA_OUT =  22, DATA_IN =  33, COUNT=          11, CLK= 1, WR_EN=0, RD_EN = 1 
                 555 DATA_OUT =  22, DATA_IN =  33, COUNT=          11, CLK= 0, WR_EN=0, RD_EN = 1 
                 560 DATA_OUT =  23, DATA_IN =  33, COUNT=          10, CLK= 1, WR_EN=0, RD_EN = 1 
                 565 DATA_OUT =  23, DATA_IN =  33, COUNT=          10, CLK= 0, WR_EN=0, RD_EN = 1 
                 570 DATA_OUT =  24, DATA_IN =  33, COUNT=           9, CLK= 1, WR_EN=0, RD_EN = 1 
                 575 DATA_OUT =  24, DATA_IN =  33, COUNT=           9, CLK= 0, WR_EN=0, RD_EN = 1 
                 580 DATA_OUT =  25, DATA_IN =  33, COUNT=           8, CLK= 1, WR_EN=0, RD_EN = 1 
                 585 DATA_OUT =  25, DATA_IN =  33, COUNT=           8, CLK= 0, WR_EN=0, RD_EN = 1 
                 590 DATA_OUT =  26, DATA_IN =  33, COUNT=           7, CLK= 1, WR_EN=0, RD_EN = 1 
                 595 DATA_OUT =  26, DATA_IN =  33, COUNT=           7, CLK= 0, WR_EN=0, RD_EN = 1 
                 600 DATA_OUT =  27, DATA_IN =  33, COUNT=           6, CLK= 1, WR_EN=0, RD_EN = 1 
                 605 DATA_OUT =  27, DATA_IN =  33, COUNT=           6, CLK= 0, WR_EN=0, RD_EN = 1 
                 610 DATA_OUT =  28, DATA_IN =  33, COUNT=           5, CLK= 1, WR_EN=0, RD_EN = 1 
                 615 DATA_OUT =  28, DATA_IN =  33, COUNT=           5, CLK= 0, WR_EN=0, RD_EN = 1 
                 620 DATA_OUT =  29, DATA_IN =  33, COUNT=           4, CLK= 1, WR_EN=0, RD_EN = 1 
                 625 DATA_OUT =  29, DATA_IN =  33, COUNT=           4, CLK= 0, WR_EN=0, RD_EN = 1 
                 630 DATA_OUT =  30, DATA_IN =  33, COUNT=           3, CLK= 1, WR_EN=0, RD_EN = 1 
                 635 DATA_OUT =  30, DATA_IN =  33, COUNT=           3, CLK= 0, WR_EN=0, RD_EN = 1 
                 640 DATA_OUT =  31, DATA_IN =  33, COUNT=           2, CLK= 1, WR_EN=0, RD_EN = 1 
                 645 DATA_OUT =  31, DATA_IN =  33, COUNT=           2, CLK= 0, WR_EN=0, RD_EN = 1 
                 650 DATA_OUT =  32, DATA_IN =  33, COUNT=           1, CLK= 1, WR_EN=0, RD_EN = 1 
                 655 DATA_OUT =  32, DATA_IN =  33, COUNT=           1, CLK= 0, WR_EN=0, RD_EN = 1 
                 660 DATA_OUT =   z, DATA_IN =  33, COUNT=           0, CLK= 1, WR_EN=0, RD_EN = 1 
                 665 DATA_OUT =   z, DATA_IN =  33, COUNT=           0, CLK= 0, WR_EN=0, RD_EN = 1 
                 670 DATA_OUT =   z, DATA_IN =  33, COUNT=          -1, CLK= 1, WR_EN=0, RD_EN = 1 
                 675 DATA_OUT =   z, DATA_IN =  33, COUNT=          -1, CLK= 0, WR_EN=0, RD_EN = 1 
                 680 DATA_OUT =   z, DATA_IN =  33, COUNT=          -2, CLK= 1, WR_EN=0, RD_EN = 1 
                 685 DATA_OUT =   z, DATA_IN =  33, COUNT=          -2, CLK= 0, WR_EN=0, RD_EN = 1 
                 690 DATA_OUT =   z, DATA_IN =  33, COUNT=          -3, CLK= 1, WR_EN=0, RD_EN = 1 
                 695 DATA_OUT =   z, DATA_IN =  33, COUNT=          -3, CLK= 0, WR_EN=0, RD_EN = 1 
                 700 DATA_OUT =   z, DATA_IN =  33, COUNT=          -4, CLK= 1, WR_EN=0, RD_EN = 1 
                 705 DATA_OUT =   z, DATA_IN =  33, COUNT=          -4, CLK= 0, WR_EN=0, RD_EN = 1 
Write to FIFO
                 710 DATA_OUT =   z, DATA_IN =   1, COUNT=          -5, CLK= 1, WR_EN=0, RD_EN = 1 
                 715 DATA_OUT =   z, DATA_IN =   1, COUNT=          -5, CLK= 0, WR_EN=0, RD_EN = 1 
                 720 DATA_OUT =   z, DATA_IN =   1, COUNT=           0, CLK= 1, WR_EN=1, RD_EN = 0 
                 725 DATA_OUT =   z, DATA_IN =   1, COUNT=           0, CLK= 0, WR_EN=1, RD_EN = 0 
                 730 DATA_OUT =   z, DATA_IN =   1, COUNT=           1, CLK= 1, WR_EN=1, RD_EN = 0 
                 735 DATA_OUT =   z, DATA_IN =   1, COUNT=           1, CLK= 0, WR_EN=1, RD_EN = 0 
                 740 DATA_OUT =   1, DATA_IN =   2, COUNT=           2, CLK= 1, WR_EN=1, RD_EN = 0 
                 745 DATA_OUT =   1, DATA_IN =   2, COUNT=           2, CLK= 0, WR_EN=1, RD_EN = 0 
                 750 DATA_OUT =   1, DATA_IN =   3, COUNT=           3, CLK= 1, WR_EN=1, RD_EN = 0 
                 755 DATA_OUT =   1, DATA_IN =   3, COUNT=           3, CLK= 0, WR_EN=1, RD_EN = 0 
                 760 DATA_OUT =   1, DATA_IN =   4, COUNT=           4, CLK= 1, WR_EN=1, RD_EN = 0 
                 765 DATA_OUT =   1, DATA_IN =   4, COUNT=           4, CLK= 0, WR_EN=1, RD_EN = 0 
                 770 DATA_OUT =   1, DATA_IN =   5, COUNT=           5, CLK= 1, WR_EN=1, RD_EN = 0 
                 775 DATA_OUT =   1, DATA_IN =   5, COUNT=           5, CLK= 0, WR_EN=1, RD_EN = 0 
                 780 DATA_OUT =   1, DATA_IN =   6, COUNT=           6, CLK= 1, WR_EN=1, RD_EN = 0 
                 785 DATA_OUT =   1, DATA_IN =   6, COUNT=           6, CLK= 0, WR_EN=1, RD_EN = 0 
                 790 DATA_OUT =   1, DATA_IN =   7, COUNT=           7, CLK= 1, WR_EN=1, RD_EN = 0 
                 795 DATA_OUT =   1, DATA_IN =   7, COUNT=           7, CLK= 0, WR_EN=1, RD_EN = 0 
                 800 DATA_OUT =   1, DATA_IN =   8, COUNT=           8, CLK= 1, WR_EN=1, RD_EN = 0 
                 805 DATA_OUT =   1, DATA_IN =   8, COUNT=           8, CLK= 0, WR_EN=1, RD_EN = 0 
Write and Read to FIFO
                 810 DATA_OUT =   1, DATA_IN =   9, COUNT=           9, CLK= 1, WR_EN=1, RD_EN = 0 
                 815 DATA_OUT =   1, DATA_IN =   9, COUNT=           9, CLK= 0, WR_EN=1, RD_EN = 1 
                 820 DATA_OUT =   1, DATA_IN =   9, COUNT=           9, CLK= 1, WR_EN=1, RD_EN = 1 
                 825 DATA_OUT =   1, DATA_IN =  10, COUNT=           9, CLK= 0, WR_EN=1, RD_EN = 1 
                 830 DATA_OUT =   1, DATA_IN =  10, COUNT=           9, CLK= 1, WR_EN=1, RD_EN = 1 
                 835 DATA_OUT =   1, DATA_IN =  11, COUNT=           9, CLK= 0, WR_EN=1, RD_EN = 1 
                 840 DATA_OUT =   2, DATA_IN =  11, COUNT=           9, CLK= 1, WR_EN=1, RD_EN = 1 
                 845 DATA_OUT =   2, DATA_IN =  12, COUNT=           9, CLK= 0, WR_EN=1, RD_EN = 1 
                 850 DATA_OUT =   3, DATA_IN =  12, COUNT=           9, CLK= 1, WR_EN=1, RD_EN = 1 
                 855 DATA_OUT =   3, DATA_IN =  13, COUNT=           9, CLK= 0, WR_EN=1, RD_EN = 1 
                 860 DATA_OUT =   4, DATA_IN =  13, COUNT=           9, CLK= 1, WR_EN=1, RD_EN = 1 
                 865 DATA_OUT =   4, DATA_IN =  14, COUNT=           9, CLK= 0, WR_EN=0, RD_EN = 1 
                 870 DATA_OUT =   5, DATA_IN =  14, COUNT=           8, CLK= 1, WR_EN=0, RD_EN = 1 
                 875 DATA_OUT =   5, DATA_IN =  14, COUNT=           8, CLK= 0, WR_EN=0, RD_EN = 1 
                 880 DATA_OUT =   6, DATA_IN =  14, COUNT=           7, CLK= 1, WR_EN=0, RD_EN = 1 
                 885 DATA_OUT =   6, DATA_IN =  14, COUNT=           7, CLK= 0, WR_EN=0, RD_EN = 1 
                 890 DATA_OUT =   7, DATA_IN =  14, COUNT=           6, CLK= 1, WR_EN=0, RD_EN = 1 
                 895 DATA_OUT =   7, DATA_IN =  14, COUNT=           6, CLK= 0, WR_EN=0, RD_EN = 1 
                 900 DATA_OUT =   8, DATA_IN =  14, COUNT=           5, CLK= 1, WR_EN=0, RD_EN = 1 
                 905 DATA_OUT =   8, DATA_IN =  14, COUNT=           5, CLK= 0, WR_EN=0, RD_EN = 1 
                 910 DATA_OUT =   9, DATA_IN =  14, COUNT=           4, CLK= 1, WR_EN=0, RD_EN = 1 
                 915 DATA_OUT =   9, DATA_IN =  14, COUNT=           4, CLK= 0, WR_EN=0, RD_EN = 1 
                 920 DATA_OUT =   9, DATA_IN =  14, COUNT=           3, CLK= 1, WR_EN=0, RD_EN = 1 
                 925 DATA_OUT =   9, DATA_IN =  14, COUNT=           3, CLK= 0, WR_EN=0, RD_EN = 1 
                 930 DATA_OUT =  10, DATA_IN =  14, COUNT=           2, CLK= 1, WR_EN=0, RD_EN = 1 
                 935 DATA_OUT =  10, DATA_IN =  14, COUNT=           2, CLK= 0, WR_EN=0, RD_EN = 1 
                 940 DATA_OUT =  11, DATA_IN =  14, COUNT=           1, CLK= 1, WR_EN=0, RD_EN = 1 
                 945 DATA_OUT =  11, DATA_IN =  14, COUNT=           1, CLK= 0, WR_EN=0, RD_EN = 1 
                 950 DATA_OUT =   z, DATA_IN =  14, COUNT=           0, CLK= 1, WR_EN=0, RD_EN = 1 
$finish called from file "fifo_tb.v", line 60.
$finish at simulation time                  955
           V C S   S i m u l a t i o n   R e p o r t 
Time: 955 ns
CPU Time:      0.230 seconds;       Data structure size:   0.0Mb
Sat May 21 18:59:32 2022
